{
    "compilerOptions": {
        "experimentalDecorators": true,
        "baseUrl": ".",
        "paths": {
            "c/ckeditor": [
                "../staticresources/ckeditor/ckeditor/ckeditor.js"
            ],
            "c/codemirror": [
                "../staticresources/ckeditor/ckeditor/samples/toolbarconfigurator/lib/codemirror/codemirror.js"
            ]
        }
    },
    "include": [
        "**/*",
        "../../../../.sfdx/typings/lwc/**/*.d.ts"
    ],
    "typeAcquisition": {
        "include": [
            "jest"
        ]
    }
}
